Rxn name	Formula	LB	UB	Objective	Description	EC	Gene-reaction association	Genes	Notes	Proteins	References	Spontaneous	Subsystems	merged_reactions	source_model	transcript
Ex_Ethanol	ETOH[c] <=> 	0	1000	0	Ethanol export										manual	
Ex_lactate	1.0 L-LACTATE[c] <=> 	0	1000	0	Lactate export										manual	
L-LACTATE-DEHYDROGENASE-RXN_c	1.0 L-LACTATE[c] + 1.0 NAD[c] <=> 1.0 NADH[c] + 1.0 PROTON[c] + 1.0 PYRUVATE[c]	-1000	1000	0	Lactate dehydrogenase	 1.1.1.27			non-generic_balanced	Q9ZRJ5 Q96570 P50933 P13490 P16115 Q7M1E1 P42119 P07864 P06150 P06151 P04034 Q9CGG8 P04642 P00338 P00339 P20373 P13491 P13715 P47698 P29038 P46454 Q60176 Q9CII4 Q96569 P19629 P0C0J3 Q48662 E8ME30 P0CW93 P14561 Q9PNC8 P13714 P13743 Q60009 P00337 P07195 Q27		0	,PWY-5481 PWY-6901 P124-PWY P122-PWY	L-LACTATE-DEHYDROGENASE-RXN|0_metacyc_good_h	metacyc_good	c8370_g1_i1
L-LACTATE-DEHYDROGENASE-RXN|0_metacyc_good_h	 <=> 	-1000	1000	0		 1.1.1.27			TO REMOVE	Q9ZRJ5 Q96570 P50933 P13490 P16115 Q7M1E1 P42119 P07864 P06150 P06151 P04034 Q9CGG8 P04642 P00338 P00339 P20373 P13491 P13715 P47698 P29038 P46454 Q60176 Q9CII4 Q96569 P19629 P0C0J3 Q48662 E8ME30 P0CW93 P14561 Q9PNC8 P13714 P13743 Q60009 P00337 P07195 Q27		0	,PWY-5481 PWY-6901 P124-PWY P122-PWY	L-LACTATE-DEHYDROGENASE-RXN|0_metacyc_good_h	metacyc_good	
