Ex_Raffinose	0.0
ACoAC_h	-0.936274509804
Tr_GCA2	-0.936274509804
Tr_GCA1	-0.936274509804
RXN-13926|1_aracyc_bad_c	-0.936274509804
Ex_neomenthol	-0.936274509804
Tr_TPT3	-0.936274509804
CDPKIN-RXN|0_h	0.0
ASPCARBTRANS-RXN|0_metacyc_good_h	-0.936274509804
HCysMT_c	-0.936274509804
Si_H	-0.936274509804
ISOCITRATE-DEHYDROGENASE-NAD+-RXN|0_metacyc_good_m	-0.936274509804
Asnase_c	-0.936274509804
Tr_H2Op	-0.936274509804
6PGDHNADP_h	-0.936274509804
UTPHEXPURIDYLYLTRANS-RXN|0_aracyc_good_c	0.0
Tr_TPT2	-0.936274509804
Tr_TPT1	-0.941932624113
Tr_PPT	-0.936274509804
PRTRANS-RXN|0_aracyc_good_h	-0.936274509804
RXN-9563|0_c	-0.936274509804
Tr_NDT2	-0.936274509804
Tr_O2h	-0.936274509804
PyrDH2_m	-0.972222222222
Tr_O2p	-0.936274509804
Ex_Gln_p	-0.936274509804
SHIKIMATE-KINASE-RXN|0_metacyc_good_h	-0.936274509804
Ex_Gln_c	-0.936274509804
Ex_starch	-0.936274509804
Ex_Gln_h	-0.936274509804
Ex_Gln_m	-0.936274509804
GAPDH2_h	-0.955882352941
Ex_Tyr_c	-0.936274509804
GAPDH2_c	-0.936274509804
Ex_Tyr_m	-0.936274509804
Ex_Tyr_h	-0.936274509804
TPP_c	-0.936274509804
Ex_Tyr_p	-0.936274509804
HCO3DHA_c	-1.33333333333
HCO3DHA_h	-0.936274509804
RXN-5164|0_metacyc_good_c	-0.936274509804
SABINENE_SYNTHASE_h	-0.936274509804
Tr_H_m_c	0.0
SCACoAL_m	-0.972222222222
Ex_Asp_m	-0.936274509804
TPS_c	-0.936274509804
Ex_Asp_p	-0.936274509804
Ex_Ile_p	-0.936274509804
RIB5PISOM-RXN|0_aracyc_good_c	-0.936274509804
Ex_Ile_m	-0.936274509804
Ex_Ile_h	-0.936274509804
Ex_Tre	-0.936274509804
AsnS_c	-0.936274509804
DPE13_h	-0.936274509804
Ex_Pro_c	-0.936274509804
RXN-5482|0_aracyc_good_c	-0.936274509804
Tr_Mal_OAA_m_c	-0.936274509804
Ex_Pro_m	-0.936274509804
Ex_Pro_h	-0.936274509804
Ex_Pro_p	-0.936274509804
RXN-8025|0_aracyc_good_h	-0.936274509804
1.6.5.4-RXN|0_aracyc_good_p	-0.936274509804
1.6.5.4-RXN|0_aracyc_good_h	-0.936274509804
RXNQT-4395|0_aracyc_good_c	-0.936274509804
1.6.5.4-RXN|0_aracyc_good_c	-0.936274509804
Ex_Glc	-0.936274509804
PSerAT_h	-0.936274509804
RXN-3521|0_aracyc_good_c	-0.936274509804
RXN-3521|0_aracyc_good_p	-0.936274509804
OXALODECARB-RXN|0_aracyc_good_c	-0.936274509804
NUCLEOSIDE-DIP-KIN-RXN|6_metacyc_good_c	-0.936274509804
Tr_CO2m	-0.972222222222
Tr_CO2h	0.0
AlaTA_h	-0.936274509804
AlaTA_m	-0.936274509804
RXN-14748|0_metacyc_good_c	-0.936274509804
RIBULP3EPIM-RXN|0_aracyc_good_c	-0.936274509804
RXN-8891|0_aracyc_good_m	-0.936274509804
GluDH1NADP_m	-0.936274509804
PGM_c	-0.945544554455
PGM_h	-0.936274509804
3.2.1.106-RXN|1_aracyc_good_c	-0.936274509804
Ex_Gly_m	-0.936274509804
Ex_Gly_c	-0.936274509804
RXN-706|0_aracyc_good_c	-0.936274509804
Ex_Gly_p	-0.936274509804
3.6.3.20-RXN|0_aracyc_good_m	-0.936274509804
5.1.2.3-RXN|0_aracyc_good_p	-0.936274509804
RXN-13188|0_aracyc_good_c	-0.936274509804
Ex_pinene	-0.936274509804
TREHALOSE6PSYN-RXN|0_aracyc_good_c	-0.936274509804
RXN-8026|0_aracyc_good_h	-0.936274509804
DXS-RXN|0_aracyc_good_h	0.0
PGP_h	-0.936274509804
RXN-8287|0_aracyc_good_c	-0.936274509804
Tr_BAC1	-0.936274509804
Tr_BAC2	-0.936274509804
Tr_Tyr1	-0.936274509804
Tr_cineole	-0.936274509804
Ex_His_c	-0.936274509804
CAT_p	-0.936274509804
DHLDH2_m	-0.972222222222
Ex_His_h	-0.936274509804
Ex_His_m	-0.936274509804
2TRANSKETO-RXN|0_metacyc_good_h	-0.936274509804
Ex_His_p	-0.936274509804
CAT_h	-0.936274509804
PEPC1_c	-0.936274509804
Tr_pGlc	-0.936274509804
RXN-14657|0_c	-0.936274509804
bAMY1_h	-0.936274509804
RXN-15530|0_c	-0.936274509804
Ru5PE_h	-0.936274509804
Ex_cineole	-0.936274509804
Tr_His3	-0.936274509804
RXN-11356|0_aracyc_good_h	-0.936274509804
3IPMDA2_h	-0.936274509804
Ex_sabinene	-0.936274509804
RXN-7979|0_aracyc_good_c	-0.936274509804
Tr_Gln	-0.936274509804
Tr_PRPP	-0.936274509804
Tr_sabinene_hydrate	-0.936274509804
Tr_Gly	-0.936274509804
Tr_H2S1	-0.936274509804
Tr_H2S2	-0.936274509804
RXN-7698|0_aracyc_good_p	-0.936274509804
Ex_Leu_h	-0.936274509804
Ex_Leu_m	-0.936274509804
Ex_Leu_c	-0.936274509804
Ex_Leu_p	-0.936274509804
RXN-11357|0_aracyc_good_h	-0.936274509804
2.5.1.19-RXN|0_metacyc_good_h	-0.936274509804
1.14.13.104-RXN|0_c	-0.936274509804
DHLST_m	-0.972222222222
6PGDHNAD_h	-0.936274509804
RXN-7978|1_aracyc_good_c	-0.936274509804
Tr_trans_isopiperitenol	0.0
Tr_DIT2	-0.936274509804
Tr_DIT1	-0.936274509804
R83-RXN|0_aracyc_good_c	-0.936274509804
DXPREDISOM-RXN|0_aracyc_good_h	0.0
RXN-6269|0_aracyc_good_c	-0.936274509804
CITSYN-RXN|0_metacyc_good_m	-0.972222222222
HYDROXYPYRUVATE-REDUCTASE-RXN|0_aracyc_good_p	-0.936274509804
NARINGENIN-3-DIOXYGENASE-RXN|0_c	-0.936274509804
Tr_Pro1	-0.936274509804
Tr_Pro2	-0.936274509804
ANTPRT_h	-0.936274509804
ATPSL_h	-0.936274509804
Tr_ProU	-0.936274509804
Tr_ProA	-0.936274509804
PHOSPHOENOLPYRUVATE-PHOSPHATASE-RXN|0_aracyc_good_c	-0.936274509804
RXN-7771|0_aracyc_good_c	-0.936274509804
Tr_NDT1	-0.936274509804
RXN0-5462|0_aracyc_good_h	-0.936274509804
RXN0-5462|0_aracyc_good_m	-0.936274509804
GluSeADH_c	-0.936274509804
GluSeADH_m	-0.936274509804
RXN0-5462|0_aracyc_good_c	-0.936274509804
GluSeADH_h	-0.936274509804
GABATA1_m	-0.936274509804
RXN-7644|0_aracyc_good_c	-0.936274509804
Ex_limonene	-0.936274509804
PSerP_h	-0.936274509804
Im_NH4	-0.936274509804
GluDH2NAD_m	-0.936274509804
ACSERLY-RXN|0_metacyc_good_h	-0.936274509804
Tr_DTC4A	-0.936274509804
Tr_DTC4B	-0.936274509804
RXN-6883|0_aracyc_good_h	-0.936274509804
RXN-6883|0_aracyc_good_m	-0.936274509804
RXN-13188|1_aracyc_good_c	-0.936274509804
RXN4FS-12|0_aracyc_good_c	-0.936274509804
RXN-8415|0_c	-0.936274509804
RXN-13701|1_metacyc_good_c	-0.936274509804
1.1.99.28-RXN|0_aracyc_good_c	-0.936274509804
HEXK_c	-0.936274509804
Tr_Ser2	-0.936274509804
Tr_Ser3	-0.936274509804
Tr_Lys2	-0.936274509804
Tr_Lys1	-0.936274509804
DPE2_c	-0.936274509804
Tr_NH41	-0.936274509804
Tr_NH42	-0.936274509804
RXN0-5289|0_aracyc_good_m	-0.936274509804
OHACYL-COA-DEHYDROG-RXN|1_aracyc_good_p	-0.936274509804
Tr_AC2	-0.936274509804
CitS_c	-0.936274509804
R5PDPK_h	-0.936274509804
GlyHMT_m	-0.936274509804
GluSNAD_h	-0.936274509804
GlyHMT_c	-0.936274509804
3.2.1.26-RXN|0_metacyc_good_c	-0.936274509804
RXN0-882|0_aracyc_bad_h	0.0
RBO_h	-0.936274509804
CBPS_h	-0.936274509804
F26BPPh_c	-0.936274509804
MetS_c	-0.936274509804
PGAM_h	-0.936274509804
PGAK_h	-0.955882352941
Tr_Met1	-0.936274509804
Tr_Met2	-0.936274509804
4-HYDROXYBUTYRATE-DEHYDROGENASE-RXN|0_aracyc_good_p	-0.936274509804
PGAK_c	-0.945402298851
RXN-13692|0_metacyc_good_c	-0.936274509804
BHBDCLOS-RXN|0_aracyc_good_p	-0.936274509804
MalDH2NADP_c	-0.936274509804
3.1.3.77-RXN|0_aracyc_good_c	-0.936274509804
2.7.1.148-RXN|0_aracyc_good_h	0.0
FumHA_m	-0.972222222222
--MENTHOL-DEHYDROGENASE-RXN|0_metacyc_good_c	0.0
Tr_Tyr3	-0.936274509804
Tr_Tyr2	-0.936274509804
NUCLEOSIDE-DIP-KIN-RXN|9_metacyc_good_c	-0.936274509804
2.7.7.13-RXN|0_aracyc_good_c	-0.936274509804
TA_h	-0.936274509804
DAHPSYN-RXN|0_metacyc_good_h	-0.936274509804
Tr_Pyr1	-0.936274509804
Tr_Pyr2	-0.953125
GluK_c	-0.936274509804
GluK_h	-0.936274509804
GluK_m	-0.936274509804
Ex_Suc	-0.936274509804
ISPH2-RXN|0_aracyc_good_h	-0.936274509804
Tr_Ala2	-0.936274509804
RXN-5481|0_c	-0.936274509804
Tr_Ala1	-0.936274509804
1.1.1.170-RXN|1_aracyc_good_c	-0.936274509804
1.1.99.28-RXN|1_aracyc_good_c	-0.936274509804
3PGAREARR-RXN|0_metacyc_good_c	-0.938943894389
Tr_H2Oh	-0.936274509804
Tr_H2Om	0.0
RXN-8001|0_aracyc_good_c	-0.936274509804
1.1.1.39-RXN|0_aracyc_good_m	-0.936274509804
GLUTAMINESYN-RXN|0_aracyc_good_c	-0.936274509804
Ex_Phe_p	-0.936274509804
Ex_Phe_h	-0.936274509804
Ex_Phe_m	-0.936274509804
Ex_Phe_c	-0.936274509804
RXN-1882|0_aracyc_good_c	-0.936274509804
RXN-7904|0_aracyc_good_h	-0.936274509804
cplx2_m	-0.972222222222
ACYL-COA-HYDROLASE-RXN|7_aracyc_good_h	-0.936274509804
cplx4_m	-1.02083333333
RXN4FS-13|0_aracyc_good_c	-0.936274509804
Tr_His2	-0.936274509804
Tr_His1	-0.936274509804
NUCLEOSIDE-PHOSPHATE-KINASE-RXN|4_h	0.0
cplx1_m	0.0
CTPP_c	-0.936274509804
ACPM_h	-0.936274509804
MALIC-NADP-RXN|0_metacyc_good_c	-0.936274509804
MALIC-NADP-RXN|0_metacyc_good_h	-0.936274509804
SerAcT_h	-0.936274509804
SerAcT_m	-0.936274509804
SerAcT_c	-0.936274509804
GPAT_h	-0.936274509804
ADNK_c	-0.936274509804
R5PI_h	-0.936274509804
ACYL-COA-HYDROLASE-RXN|6_aracyc_good_h	-0.936274509804
6PGL_h	-0.936274509804
Tr_O2m	0.0
RXNQT-4141|0_aracyc_good_c	-0.936274509804
ASPAMINOTRANS-RXN|0_h	-0.936274509804
ASPAMINOTRANS-RXN|0_metacyc_good_m	-0.936274509804
3.2.1.106-RXN|0_aracyc_good_c	-0.936274509804
AspAT_p	-0.936274509804
3.6.3.25-RXN|0_aracyc_good_h	-0.936274509804
RXN-7894|0_aracyc_good_c	-0.936274509804
RXN-7904|2_aracyc_good_h	-0.936274509804
MalDH1_p	-0.936274509804
ISOPIPERITENOL-DEHYDROGENASE-RXN|0_m	0.0
5-NUCLEOTID-RXN|3_c	-0.936274509804
Ex_Asp_h	-0.936274509804
Tr_P5C2	-0.936274509804
MALATE-DEH-RXN|0_metacyc_good_c	-0.945402298851
Tr_P5C1	-0.936274509804
MalDH1_m	-0.954678362573
MalDH1_h	-0.936274509804
Tr_DTC4C	-0.936274509804
Ex_Asp_c	-0.936274509804
UDPGLUCEPIM-RXN|0_aracyc_good_c	0.0
RXN-5162|0_c	0.0
Tr_KG	-0.936274509804
RXN-12089|0_aracyc_good_c	-0.936274509804
URIDINEKIN-RXN|0_aracyc_good_c	-0.936274509804
RXN-5161|0_metacyc_good_c	0.0
Ex_O2	0.0
CHORISMATE-SYNTHASE-RXN|0_metacyc_good_h	-0.936274509804
RXN0-884|0_aracyc_good_h	-0.936274509804
Tr_Mal	-0.936274509804
Ex_Ile_c	-0.936274509804
Ex_Frc	-0.936274509804
ACYL-COA-HYDROLASE-RXN|9_aracyc_good_h	-0.936274509804
ACETYL-COA-CARBOXYLTRANSFER-RXN|0_aracyc_good_c	-0.936274509804
PEPDEPHOS-RXN|0_aracyc_good_c	-0.936274509804
GlnS_c	-0.936274509804
CHRM_c	-0.936274509804
GlnS_h	-0.936274509804
Tr_Leu1	-0.936274509804
Tr_Leu2	-0.936274509804
Tr_Leu3	-0.936274509804
SerRM_c	-0.936274509804
Tr_Mex1	-0.936274509804
GDPK_h	-0.936274509804
GDPK_c	-0.936274509804
3-HYDROXBUTYRYL-COA-DEHYDRATASE-RXN|0_aracyc_good_p	-0.936274509804
GLUCOSE-6-PHOSPHATE-1-EPIMERASE-RXN|0_aracyc_good_c	-0.936274509804
GLUCOSE-6-PHOSPHATE-1-EPIMERASE-RXN|0_aracyc_good_h	-0.936274509804
RXN-6269|1_aracyc_good_c	-0.936274509804
DHQDH_h	-0.936274509804
RXN-7978|0_aracyc_good_c	-0.936274509804
FBPA_c	-0.936274509804
FBPA_h	-0.936274509804
R82-RXN|0_aracyc_good_c	-0.936274509804
RXN-14639|0_c	-0.936274509804
Ex_neoisomenthol	-0.936274509804
StS_h1	-0.936274509804
StS_h3	-0.936274509804
StS_h2	-0.936274509804
BAATA2_h	-0.936274509804
Tr_IPP	-0.936274509804
OHACYL-COA-DEHYDROG-RXN|4_aracyc_good_p	-0.936274509804
DHQS_h	-0.936274509804
Tr_Ser1	-0.936274509804
TSA-REDUCT-RXN|1_aracyc_good_m	-0.936274509804
1TRANSKETO-RXN|0_metacyc_good_h	-0.936274509804
RXN-7904|1_aracyc_good_h	-0.936274509804
Ex_pulegone	-0.936274509804
Tr_GPT1	-0.936274509804
RXN-13193|1_aracyc_good_c	-0.936274509804
1.14.13.72-RXN|1_aracyc_good_c	-0.936274509804
Ex_Val_c	-0.936274509804
Ex_Val_m	-0.936274509804
Ex_Val_h	-0.936274509804
Ex_Val_p	-0.936274509804
RXN-14661|0_c	-0.936274509804
RXN-12486|0_aracyc_good_c	-0.936274509804
Tr_BT13	-0.936274509804
Tr_BT12	-0.936274509804
Tr_BT11	-0.936274509804
FLAVONOID-3-MONOOXYGENASE-RXN|0_aracyc_good_c	-0.936274509804
RXN-7893|0_aracyc_good_c	-0.936274509804
FPPSYN-RXN|0_metacyc_good_c	-0.936274509804
RXN-3522|0_aracyc_good_p	-0.936274509804
SPERMINE-SYNTHASE-RXN|0_aracyc_good_c	-0.936274509804
PRPPSYN-RXN|0_aracyc_good_c	-0.936274509804
Tr_H_h_c	-0.936274509804
RXN-13701|0_metacyc_good_c	-0.936274509804
6PFRUCTPHOS-RXN|0_aracyc_good_h	-0.936274509804
6PFRUCTPHOS-RXN|0_aracyc_good_c	-0.936274509804
Ex_Lys_p	-0.936274509804
RXN-11811|0_c	-0.936274509804
Ex_Lys_c	-0.936274509804
Ex_Lys_m	-0.936274509804
Ex_Lys_h	-0.936274509804
DPE12_h	-0.936274509804
NMPK_c	-0.936274509804
RXN-12242|0_aracyc_good_h	-0.936274509804
Ex_isomenthone	-0.936274509804
RXN-525|0_aracyc_good_c	-0.936274509804
Tr_GCEA2	-0.936274509804
RXN-8286|0_aracyc_good_c	-0.936274509804
NUCLEOSIDE-DIP-KIN-RXN|8_aracyc_good_m	-0.936274509804
RXN-8284|0_aracyc_good_c	-0.936274509804
UDPK_c	-0.936274509804
IPPISOM-RXN|0_aracyc_good_c	-0.936274509804
IPPISOM-RXN|0_aracyc_good_h	-0.936274509804
Tr_XPT1	-0.936274509804
Tr_limonene	0.0
ANTHRANSYN-RXN|0_aracyc_good_h	-0.936274509804
FrcK_c	-1.40441176471
Tr_DTC1C	-0.936274509804
Tr_DTC1B	-0.936274509804
Tr_DTC1A	-0.936274509804
5M-THFOR_c	-0.936274509804
Tr_SO4	-0.936274509804
Tr_H_p_c	-0.936274509804
RXN-9563|1_c	-0.936274509804
AMT_m	-0.936274509804
Ex_Arg_p	-0.936274509804
Im_CO2	0.0
Ex_Arg_h	-0.936274509804
Ex_Arg_m	-0.936274509804
Ex_Arg_c	-0.936274509804
Ex_Asn_c	-0.936274509804
Ex_Asn_h	-0.936274509804
Ex_Asn_m	-0.936274509804
RXN66-532|0_aracyc_good_h	-0.936274509804
Ex_Asn_p	-0.936274509804
PyrDH1_m	-0.972222222222
DPE11_h	-0.936274509804
TPI_h	-0.936274509804
TPI_c	-0.936274509804
G6PDH_h	-0.936274509804
GLYOXYLATE-REDUCTASE-NADP+-RXN|0_aracyc_good_p	-0.936274509804
Ex_Glu_c	-0.936274509804
Ex_Glu_m	-0.936274509804
GAPDH1_h	-0.936274509804
Ex_Glu_h	-0.936274509804
Ex_Glu_p	-0.936274509804
HISTOLDEHYD-RXN|0_aracyc_good_c	-0.936274509804
Im_H2O	-3.484375
AMPK_c	-0.936274509804
Im_H2S	-0.936274509804
Tr_pinene	-0.936274509804
AMPK_h	-0.936274509804
RXN3O-218|0_aracyc_good_c	-0.936274509804
Ex_cellulose	-0.936274509804
GluDC_c	-0.936274509804
3IPMDA1_h	-0.936274509804
Ex_Mas	-0.936274509804
cACNDHA_m	-0.936274509804
NADH-KINASE-RXN|0_aracyc_good_c	-0.936274509804
RXN-6271|1_aracyc_good_c	-0.936274509804
Tr_Trp2	-0.936274509804
Tr_Trp3	-0.936274509804
cACNDHA_c	-0.936274509804
Tr_Hp	-0.936274509804
CysS_c	-0.936274509804
CysS_m	-0.936274509804
INORGPYROPHOSPHAT-RXN|0_aracyc_good_c	-0.936274509804
Tr_DTC2B	-0.936274509804
Tr_DTC2C	-0.936274509804
Tr_DTC2A	-0.936274509804
GluSeADA_c	-0.936274509804
GluSeADA_m	-0.936274509804
GluSeADA_h	-0.936274509804
+-NEOMENTHOL-DEHYDROGENASE-RXN|0	-0.936274509804
UDP-GLUCOSE-46-DEHYDRATASE-RXN|0_aracyc_good_c	-0.936274509804
Tr_DTC3C	-0.936274509804
Ex_Met_c	-0.936274509804
Ex_Met_m	-0.936274509804
Ex_Met_h	-0.936274509804
Ex_Met_p	-0.936274509804
RXN1F-152|0_aracyc_good_h	-0.936274509804
Ex_isopulegone	-0.936274509804
Ex_Ser_p	-0.936274509804
Ex_Ser_c	-0.936274509804
Ex_Ser_h	-0.936274509804
Ex_Ser_m	-0.936274509804
2.7.1.90-RXN|0_metacyc_good_c	-0.936274509804
AspCT_h	-0.936274509804
Ex_Ala_c	-0.936274509804
Ex_Ala_h	-0.936274509804
Ex_Ala_m	-0.936274509804
1.1.1.170-RXN|0_aracyc_good_c	-0.936274509804
Tr_Cys	-0.936274509804
Ex_Ala_p	-0.936274509804
DIACYLGLYKIN-RXN|0_aracyc_good_c	-0.936274509804
ATPCitL_c	-0.936274509804
Tr_AC1	-0.936274509804
1.14.21.6-RXN|0_aracyc_good_c	-0.936274509804
SAMDECARB-RXN|0_aracyc_good_c	-0.936274509804
Tr_Phe1	-0.936274509804
Tr_Phe3	-0.936274509804
Tr_Phe2	-0.936274509804
NAD-KIN-RXN|0_aracyc_good_c	-0.936274509804
RXN-13692|1_metacyc_good_c	-0.936274509804
NAD-KIN-RXN|0_aracyc_good_h	-0.936274509804
RXN0-302|0_aracyc_good_h	0.0
Cysase_c	-0.936274509804
Ex_isomenthol	-0.936274509804
PGI_c	-0.936274509804
PGI_h	-0.936274509804
GlnS_m	-0.936274509804
RXN-11502|0_aracyc_good_c	0.0
3IPMDH_h	-0.936274509804
Tr_Ile2	-0.936274509804
Tr_Ile3	-0.936274509804
RXN-5165|0_metacyc_good_c	-0.936274509804
Tr_Ile1	-0.936274509804
Ex_Thr_p	-0.936274509804
Ex_Thr_c	-0.936274509804
Ex_Thr_m	-0.936274509804
Ex_Thr_h	-0.936274509804
PEPC2_c	-1.33333333333
DHLDH1_m	-0.936274509804
Biomass	-0.936274509804
StP1_h	-0.936274509804
bAMY2_h	-0.936274509804
RXN-7886|0_aracyc_good_c	-0.936274509804
RXN-7904|3_aracyc_good_h	-0.936274509804
PGADH_h	-0.936274509804
1.14.21.6-RXN|1_aracyc_good_c	-0.936274509804
PYRUVATE-DECARBOXYLASE-RXN|2_aracyc_good_c	-0.936274509804
GluSNADP_h	-0.936274509804
MetAdT_h	-0.936274509804
RXN-7652|0_aracyc_good_c	-0.936274509804
GALACTOKIN-RXN|0_metacyc_good_c	0.0
Tr_DTC3A	-0.936274509804
URKI-RXN|0_aracyc_good_c	-0.936274509804
Tr_DTC3B	-0.936274509804
SABINENE_HYDRATE_SYNTHASE_h	-0.936274509804
Tr_Val1	-0.936274509804
Tr_Val3	-0.936274509804
Tr_Val2	-0.936274509804
FrcFD_c	-0.936274509804
NARINGENIN-CHALCONE-SYNTHASE-RXN|0_metacyc_good_c	-0.936274509804
HYDROXYPYRUVATE-REDUCTASE-RXN|1_aracyc_good_p	-0.936274509804
RXN-5163|0_metacyc_good_c	0.0
RBC_h	-0.936274509804
Tr_Met3	-0.936274509804
RXN-5166|0_metacyc_good_c	-0.936274509804
1.14.13.72-RXN|0_aracyc_good_c	-0.936274509804
GABATA2_m	-0.936274509804
RXN-7895|0_aracyc_good_c	-0.936274509804
2.4.1.82-RXN|0_aracyc_good_c	-0.936274509804
PHENYLALANINE-AMMONIA-LYASE-RXN|0_aracyc_good_c	-0.936274509804
Im_SO4	-0.936274509804
SPERMIDINESYN-RXN|0_aracyc_good_c	-0.936274509804
GLUC1PURIDYLTRANS-RXN|0_aracyc_good_c	-0.945544554455
Tr_Trp1	-0.936274509804
HISTALDEHYD-RXN|0_aracyc_good_c	-0.936274509804
RXN-15528|0_c	-0.936274509804
iCitDHNADP_c	-0.953125
--LIMONENE-3-MONOOXYGENASE-RXN|0_metacyc_good_c	0.0
Tr_Asp	-0.936274509804
3.6.3.15-RXN|0_aracyc_good_c	-0.936274509804
Tr_trans_isopiperitenone	0.0
ACDOxRed_c	-0.936274509804
Ex_MACP	-0.936274509804
DHLAcT_m	-0.972222222222
RXN-7892|0_aracyc_good_c	-0.936274509804
PyrK_h	-0.936274509804
Tr_AAC	-1.66666666667
PINENE_SYNTHASE_h	-0.936274509804
GPPSYN-RXN|0_metacyc_good_h	0.0
GPPSYN-RXN|0_metacyc_good_c	-0.936274509804
SucS_c	-0.936274509804
GLYCOLATE-REDUCTASE-RXN|0_aracyc_good_p	-0.936274509804
cplx5_m	0.0
Glnase_c	-0.936274509804
Tr_Glu1	-0.936274509804
Tr_Glu2	-0.936274509804
Ex_Cys_c	-0.936274509804
ENOYL-COA-HYDRAT-RXN|1_aracyc_good_p	-0.936274509804
Ex_Cys_h	-0.936274509804
Ex_Cys_p	-0.936274509804
GLUCOSE-6-PHOSPHATASE-RXN|0_aracyc_good_c	-0.936274509804
Tr_Asn2	-0.936274509804
Tr_Asn3	-0.936274509804
RXN-7772|0_aracyc_good_c	-0.936274509804
ASPAMINOTRANS-RXN|0_metacyc_good_c	-0.936274509804
2.4.1.123-RXN|0_aracyc_good_c	-0.936274509804
cplx3_m	-1.02083333333
Tr_OAA	-0.936274509804
Ex_polymethoxylated_flavones	-0.936274509804
IPODC_h	-0.936274509804
2.7.7.60-RXN|0_aracyc_good_h	0.0
cACNHA_c	-0.936274509804
5-NUCLEOTID-RXN|0_c	-0.936274509804
cACNHA_m	-0.936274509804
ADENYLYLSULFATASE-RXN|0_aracyc_good_h	-0.936274509804
GAPOXNPHOSPHN-RXN|0_metacyc_good_c	-0.936274509804
Tr_GlySer	-0.936274509804
RXN-12980|0_metacyc_good_h	-0.936274509804
Tr_Arg2	-0.936274509804
Tr_Arg1	-0.936274509804
AGNDA_h	-0.936274509804
Ex_trans_isopiperitenone	-0.936274509804
1.5.3.17-RXN|0_aracyc_good_c	-0.936274509804
Tr_NTT	-0.936274509804
F6PK2_c	-0.936274509804
RXN-6271|0_aracyc_good_c	-0.936274509804
Ex_Trp_p	-0.936274509804
StP21_c	-0.936274509804
Ex_Trp_c	-0.936274509804
Ex_Trp_h	-0.936274509804
Ex_Trp_m	-0.936274509804
4.2.3.16-RXN|0_metacyc_good_h	0.0
2IPMS_h	-0.936274509804
RXN-13926|0_aracyc_bad_c	-0.936274509804
RXN-7650|0_metacyc_good_c	-0.936274509804
RXN-7979|1_aracyc_good_c	-0.936274509804
Ex_Cys_m	-0.936274509804
TRANS-CINNAMATE-4-MONOOXYGENASE-RXN|0_aracyc_good_c	-0.936274509804
RXN-6903|1_aracyc_good_p	-0.936274509804
SADH_h	-0.936274509804
CTPS_c	-0.936274509804
Tr_Thr1	-0.936274509804
Tr_Thr2	-0.936274509804
Tr_Thr3	-0.936274509804
RXN-3521|0_metacyc_good_h	-0.936274509804
S6PPh_c	-0.936274509804
Fd-NADPR_h	0.0
ACYL-COA-HYDROLASE-RXN|13_aracyc_good_h	-0.936274509804
Enol_c	-0.938943894389
Tr_Asn1	-0.936274509804
Enol_h	-0.936274509804
Ex_menthol	-0.0
NUCLEOSIDE-DIP-KIN-RXN|4_metacyc_good_c	-0.936274509804
RXN-13193|0_aracyc_good_c	-0.936274509804
AGNDH_h	-0.936274509804
Ex_menthone	-0.936274509804
CeS_c1	-0.936274509804
CeS_c3	-0.936274509804
CeS_c2	-0.936274509804
MANNPGUANYLTRANGDP-RXN|0_aracyc_good_c	-0.936274509804
BAATA3_h	-0.936274509804
ALDEHYDE-OXIDASE-RXN|1_metacyc_good_c	-0.936274509804
Tr_BAT11	-0.936274509804
Tr_BAT13	-0.936274509804
Tr_BAT12	-0.936274509804
Tr_BAT15	-0.936274509804
Tr_BAT14	-0.936274509804
Ex_trans_isopiperitenol	-0.936274509804
Tr_sabinene	-0.936274509804
RXN-1461|0_aracyc_good_c	-0.936274509804
ALDOSE-1-EPIMERASE-RXN|0_aracyc_good_c	-0.936274509804
KGDH_m	-0.972222222222
GlyDH_m	-0.936274509804
CHALCONE-ISOMERASE-RXN|0_metacyc_bad_c	-0.936274509804
3-PHOSPHOGLYCERATE-PHOSPHATASE-RXN|0_aracyc_good_c	-0.936274509804
4-COUMARATE--COA-LIGASE-RXN|0_metacyc_good_c	-0.936274509804
Ex_sabinene_hydrate	-0.936274509804
Tr_DIC2	-0.936274509804
Tr_DIC1	-0.936274509804
Im_Pi	-0.936274509804
PPiase_h	0.0
